Cheat Sheet Docs
…
                  You can compute this by hand by combining dplyr::count() and ggplot2::cut_width():

diamonds %>%
  count(cut_width(carat, 0.5))
#> # A tibble: 11 x 2
#>   `cut_width(carat, 0.5)`     n
#>   <fct>                   <int>
#> 1 [-0.25,0.25]              785
#> 2 (0.25,0.75]             29498
#> 3 (0.75,1.25]             15977
#> 4 (1.25,1.75]              5313
#> 5 (1.75,2.25]              2002
#> 6 (2.25,2.75]               322
#> # … with 5 more rows
…
                  The size of each circle in the plot displays how many observations occurred at each combination of values. Covariation will appear as a strong correlation between specific x values and specific y values.

                  Another approach is to compute the count with dplyr:

diamonds %>%
  count(color, cut)
#> # A tibble: 35 x 3
#>   color cut           n
#>   <ord> <ord>     <int>
#> 1 D     Fair        163
#> 2 D     Good        662
#> 3 D     Very Good  1513
#> 4 D     Premium    1603
#> 5 D     Ideal      2834
#> 6 E     Fair        224
#> # … with 29 more rows
…
                Now we can use purrr to compute the distance for all the models defined above. We need a helper function because our distance function expects the model as a numeric vector of length 2.

sim1_dist <- function(a1, a2) {
  measure_distance(c(a1, a2), sim1)
}

models <- models %>%
  mutate(dist = purrr::map2_dbl(a1, a2, sim1_dist))
models
#> # A tibble: 250 x 3
#>       a1      a2  dist
#>    <dbl>   <dbl> <dbl>
#> 1 -15.2   0.0889  30.8
#> 2  30.1  -0.827   13.2
#> 3  16.0   2.27    13.2
#> 4 -10.6   1.38    18.7
#> 5 -19.6  -1.04    41.8
#> 6   7.98  4.59    19.3
#> # … with 244 more rows
…
                  2.3 Visualising models

                For simple models, like the one above, you can figure out what pattern the model captures by carefully studying the model family and the fitted coefficients. And if you ever take a statistics course on modelling, you’re likely to spend a lot of time doing just that. Here, however, we’re going to take a different tack. We’re going to focus on understanding a model by looking at its predictions. This has a big advantage: every type of predictive model makes predictions (otherwise what use would it be?) so we can use the same set of techniques to understand any type of predictive model.

                It’s also useful to see what the model doesn’t capture, the so-called residuals which are left after subtracting the predictions from the data. Residuals are powerful because they allow us to use models to remove striking patterns so we can study the subtler trends that remain.

                    2.3.1 Predictions

                  To visualise the predictions from a model, we start by generating an evenly spaced grid of values that covers the region where our data lies. The easiest way to do that is to use modelr::data_grid(). Its first argument is a data frame, and for each subsequent argument it finds the unique variables and then generates all combinations:

grid <- sim1 %>%
  data_grid(x)
grid
#> # A tibble: 10 x 1
#>       x
#>   <int>
#> 1     1
#> 2     2
#> 3     3
#> 4     4
#> 5     5
#> 6     6
#> # … with 4 more rows

                  (This will get more interesting when we start to add more variables to our model.)

                  Next we add predictions. We’ll use modelr::add_predictions() which takes a data frame and a model. It adds the predictions from the model to a new column in the data frame:

grid <- grid %>%
  add_predictions(sim1_mod)
grid
#> # A tibble: 10 x 2
#>       x  pred
#>   <int> <dbl>
#> 1     1  6.27
#> 2     2  8.32
#> 3     3 10.4 
#> 4     4 12.4 
#> 5     5 14.5 
#> 6     6 16.5 
#> # … with 4 more rows
…
                    2.3.2 Residuals

                  The flip-side of predictions are residuals. The predictions tells you the pattern that the model has captured, and the residuals tell you what the model has missed. The residuals are just the distances between the observed and predicted values that we computed above.

                  We add residuals to the data with add_residuals(), which works much like add_predictions(). Note, however, that we use the original dataset, not a manufactured grid. This is because to compute residuals we need actual y values.

sim1 <- sim1 %>%
  add_residuals(sim1_mod)
sim1
#> # A tibble: 30 x 3
#>       x     y  resid
#>   <int> <dbl>  <dbl>
#> 1     1  4.20 -2.07 
#> 2     1  7.51  1.24 
#> 3     1  2.13 -4.15 
#> 4     2  8.99  0.665
#> 5     2 10.2   1.92 
#> 6     2 11.3   2.97 
#> # … with 24 more rows
…
                  When you add variables with +, the model will estimate each effect independent of all the others. It’s possible to fit the so-called interaction by using *. For example, y ~ x1 * x2 is translated to y = a_0 + a_1 * x1 + a_2 * x2 + a_12 * x1 * x2. Note that whenever you use *, both the interaction and the individual components are included in the model.

                  To visualise these models we need two new tricks:

                      We have two predictors, so we need to give data_grid() both variables. It finds all the unique values of x1 and x2 and then generates all combinations.

                      To generate predictions from both models simultaneously, we can use gather_predictions() which adds each prediction as a row. The complement of gather_predictions() is spread_predictions() which adds each prediction to a new column.

                  Together this gives us:

grid <- sim3 %>%
  data_grid(x1, x2) %>%
  gather_predictions(mod1, mod2)
grid
#> # A tibble: 80 x 4
#>   model    x1 x2     pred
#>   <chr> <int> <fct> <dbl>
#> 1 mod1      1 a      1.67
#> 2 mod1      1 b      4.56
#> 3 mod1      1 c      6.48
#> 4 mod1      1 d      4.03
#> 5 mod1      2 a      1.48
#> 6 mod1      2 b      4.37
#> # … with 74 more rows
…
                    2.4.3 Interactions (two continuous)

                  Let’s take a look at the equivalent model for two continuous variables. Initially things proceed almost identically to the previous example:

mod1 <- lm(y ~ x1 + x2, data = sim4)
mod2 <- lm(y ~ x1 * x2, data = sim4)

grid <- sim4 %>%
  data_grid(
    x1 = seq_range(x1, 5),
    x2 = seq_range(x2, 5)
  ) %>%
  gather_predictions(mod1, mod2)
grid
#> # A tibble: 50 x 4
#>   model    x1    x2   pred
#>   <chr> <dbl> <dbl>  <dbl>
#> 1 mod1   -1    -1    0.996
#> 2 mod1   -1    -0.5 -0.395
#> 3 mod1   -1     0   -1.79 
#> 4 mod1   -1     0.5 -3.18 
#> 5 mod1   -1     1   -4.57 
#> 6 mod1   -0.5  -1    1.91 
#> # … with 44 more rows
…
